<?xml version="1.0" encoding="utf-8"?>
<!-- Generator: Adobe Illustrator 19.2.0, SVG Export Plug-In . SVG Version: 6.00 Build 0)  -->
<svg version="1.1" id="Layer_1" xmlns="http://www.w3.org/2000/svg" xmlns:xlink="http://www.w3.org/1999/xlink" x="0px" y="0px"
	 viewBox="0 0 1000 1000" enable-background="new 0 0 1000 1000" xml:space="preserve">
<g>
	<path d="M500.05,0C224.29,0,0,224.29,0,500.05C0,775.74,224.29,1000,500.05,1000C775.74,1000,1000,775.74,1000,500.05
		C1000,224.29,775.74,0,500.05,0L500.05,0z M723.08,385.6c0.21,4.94,0.32,9.88,0.32,14.9c0,152.1-115.71,327.38-327.41,327.38
		c-65.04,0-125.57-18.99-176.43-51.59c9.02,1.05,18.15,1.56,27.36,1.56c54.03,0,103.66-18.45,143-49.3
		c-50.35-0.94-92.86-34.19-107.52-79.92c7.01,1.34,14.26,2.09,21.59,2.09c10.5,0,20.78-1.37,30.43-4
		c-52.66-10.58-92.3-57.06-92.3-112.87c0-0.51,0-0.94,0-1.45c15.52,8.59,33.24,13.83,52.12,14.37
		c-30.94-20.57-51.18-55.8-51.18-95.79c0-21.08,5.67-40.79,15.52-57.79c56.74,69.55,141.6,115.39,237.18,120.23
		c-1.99-8.41-2.93-17.21-2.93-26.24c0-63.56,51.51-115.07,115.07-115.07c33.14,0,62.92,13.94,84.03,36.28
		c26.21-5.13,50.76-14.69,73.1-27.9c-8.7,26.85-26.85,49.41-50.65,63.67c23.28-2.71,45.52-8.92,66.06-18.13
		C765.13,349.11,745.53,369.35,723.08,385.6L723.08,385.6z M723.08,385.6"/>
</g>
</svg>
