<?xml version="1.0" encoding="utf-8"?>
<svg version="1.1" xmlns="http://www.w3.org/2000/svg" viewBox="-5 -5 100 75">
<path style="-webkit-filter:drop-shadow( 1px 1px 2px rgba(0, 0, 0, .7))" filter="drop-shadow( 1px 1px 2px rgba(0, 0, 0, .7))" fill="#FA112C" d="M42,30c2-3,10-7,13-9c8-4,16-6,25-4c6,1,10,6,8,12c-1,4-6,9-8,12
	c-7,8-24,16-35,20c-4,1-9,4-14,3c-2-0-7-5-9-6C10,47-3,22,1,4C1,4,2,2,3,1
	c2-2,9-2,11-1c2,0,6,3,8,4c11,8,13,15,18,26C41,31,41,30,42,30 M82,28
	c1-5-2-8-7-9c-8-2-20,5-26,10c-2,2-4,5-6,8c-1,1-4,2-5,2c-1-0-2-1-2-2
	c-0-2-0-4-0-6C34,21,22,6,12,3c-3-1-6-2-7,2c-0,0,0,0,0,1c-0,10,1,18,6,27
	C17,43,26,56,36,61C50,58,78,42,82,28z"/>
</svg>
