<?xml version="1.0" encoding="utf-8"?>
<!-- Generator: Adobe Illustrator 19.2.0, SVG Export Plug-In . SVG Version: 6.00 Build 0)  -->
<svg version="1.1" id="Layer_1" xmlns="http://www.w3.org/2000/svg" xmlns:xlink="http://www.w3.org/1999/xlink" x="0px" y="0px"
	 viewBox="0 0 1173.41 999.57" enable-background="new 0 0 1173.41 999.57" xml:space="preserve">
<g>
	<path fill="#009246" d="M289.73,0c-16.15,3.47-32.62,5.88-48.41,10.58C124.17,45.4,45.61,119.56,11.59,238.28
		c-5.48,19.12-7.11,39.05-9.5,58.77c-0.23,1.87,0.75,4.27-2.08,5.1c0,26.21,0,52.43,0,78.64c4.44,10.72,4.44,22.37,7.08,33.49
		c12.23,51.46,37.67,96.06,70.87,136.51c43.37,52.83,93.93,98.69,143.08,145.86c40.15,38.54,81.35,75.94,123.24,112.55V0
		C326.09,0,307.91,0,289.73,0z"/>
	<path fill="#FFFFFF" d="M817.46,0c-14.18,3.08-28.57,5.41-42.5,9.36c-61.04,17.29-110.72,52.34-152.75,99.07
		c-12.62,14.04-24.02,29.05-35.25,45.49c-17.28-25.27-36.06-48.24-57.86-68.59c-46-42.92-98.85-72.54-161.57-82.96
		c-4.55-0.76-9.58,1.15-13.64-2.37c-3.2,0-6.41,0-9.61,0v809.19c16.65,14.55,33.4,28.99,50.25,43.31
		c60.16,51.12,121.82,100.4,187.12,144.94c0.78,0.53,1.31,1.42,1.96,2.14c2.07,0,4.14,0,6.21,0c32.72-24.22,65.9-47.86,98.08-72.78
		c53.87-41.71,105.47-86.16,156.39-131.38V0C835.34,0,826.4,0,817.46,0z"/>
	<path fill="#CE2B37" d="M1008.41,41.8C969.2,18.7,926.27,5.55,880.69,1.89c-1.43-0.12-2.68-0.34-3.22-1.89c-11.07,0-22.13,0-33.2,0
		v795.42c6.15-5.46,12.29-10.93,18.42-16.41c66-58.99,130.31-119.78,192.22-183.07c42.13-43.06,79.09-89.76,100.51-147.05
		c8.22-21.98,13.75-44.56,16.03-67.93c0.16-1.66-0.05-3.5,1.97-4.31c0-22.07,0-44.15,0-66.22c-4.07-12.74-3.8-26.13-5.69-39.19
		C1152.79,168.13,1096.47,93.69,1008.41,41.8z"/>
</g>
</svg>
